{
  "dlq": [
    {
      "type": "RISK_SERVICE",
      "message": {
        "payload": {
          "createdTime": "2021-01-16T03:53:12.931845Z",
          "application": {
            "applicationReferenceId": "MLP000001926855"
          }
        }
      }
    },
    {
      "type": "RISK_SERVICE",
      "message": {
        "payload": {
          "createdTime": "2021-01-16T05:13:02.034529Z",
          "application": {
            "applicationReferenceId": "MLP000001928801"
          }
        }
      }
    },
    {
      "type": "RISK_SERVICE",
      "message": {
        "payload": {
          "createdTime": "2021-01-16T05:48:32.577140Z",
          "application": {
            "applicationReferenceId": "MLP000001916881"
          }
        }
      }
    },
    {
      "type": "RISK_SERVICE",
      "message": {
        "payload": {
          "createdTime": "2021-01-16T06:14:37.610604Z",
          "application": {
            "applicationReferenceId": "MLP000001915658"
          }
        }
      }
    },
    {
      "type": "RISK_SERVICE",
      "message": {
        "payload": {
          "createdTime": "2021-01-16T07:17:51.094689Z",
          "application": {
            "applicationReferenceId": "MLP000001909774"
          }
        }
      }
    },
    {
      "type": "RISK_SERVICE",
      "message": {
        "payload": {
          "createdTime": "2021-01-16T10:32:01.363069Z",
          "application": {
            "applicationReferenceId": "MLP000001913496"
          }
        }
      }
    },
    {
      "type": "RISK_SERVICE",
      "message": {
        "payload": {
          "createdTime": "2021-01-16T11:48:56.703907Z",
          "application": {
            "applicationReferenceId": "MLP000001917062"
          }
        }
      }
    },
    {
      "type": "RISK_SERVICE",
      "message": {
        "payload": {
          "createdTime": "2021-01-16T12:08:39.535925Z",
          "application": {
            "applicationReferenceId": "MLP000001917810"
          }
        }
      }
    },
    {
      "type": "RISK_SERVICE",
      "message": {
        "payload": {
          "createdTime": "2021-01-16T14:13:17.811139Z",
          "application": {
            "applicationReferenceId": "MLP000000842251"
          }
        }
      }
    },
    {
      "type": "RISK_SERVICE",
      "message": {
        "payload": {
          "createdTime": "2021-01-16T19:37:16.931579Z",
          "application": {
            "applicationReferenceId": "MLP000001970007"
          }
        }
      }
    },
    {
      "type": "RISK_SERVICE",
      "message": {
        "payload": {
          "createdTime": "2021-01-16T21:04:11.268246Z",
          "application": {
            "applicationReferenceId": "MLP000001970166"
          }
        }
      }
    },
    {
      "type": "RISK_SERVICE",
      "message": {
        "payload": {
          "createdTime": "2021-01-17T05:51:42.782917Z",
          "application": {
            "applicationReferenceId": "MLP000001911737"
          }
        }
      }
    },
    {
      "type": "RISK_SERVICE",
      "message": {
        "payload": {
          "createdTime": "2021-01-18T04:25:00.984741Z",
          "application": {
            "applicationReferenceId": "MLP000001924128"
          }
        }
      }
    },
    {
      "type": "RISK_SERVICE",
      "message": {
        "payload": {
          "createdTime": "2021-01-18T05:58:12.008481Z",
          "application": {
            "applicationReferenceId": "MLP000001979596"
          }
        }
      }
    },
    {
      "type": "RISK_SERVICE",
      "message": {
        "payload": {
          "createdTime": "2021-01-18T06:09:32.329209Z",
          "application": {
            "applicationReferenceId": "MLP000001909933"
          }
        }
      }
    },
    {
      "type": "RISK_SERVICE",
      "message": {
        "payload": {
          "createdTime": "2021-01-18T06:59:44.431664Z",
          "application": {
            "applicationReferenceId": "MLP000001911410"
          }
        }
      }
    },
    {
      "type": "RISK_SERVICE",
      "message": {
        "payload": {
          "createdTime": "2021-01-18T08:03:13.113617Z",
          "application": {
            "applicationReferenceId": "MLP000001911194"
          }
        }
      }
    },
    {
      "type": "RISK_SERVICE",
      "message": {
        "payload": {
          "createdTime": "2021-01-18T08:48:26.109166Z",
          "application": {
            "applicationReferenceId": "MLP000001923394"
          }
        }
      }
    },
    {
      "type": "RISK_SERVICE",
      "message": {
        "payload": {
          "createdTime": "2021-01-18T11:02:49.378284Z",
          "application": {
            "applicationReferenceId": "MLP000001921695"
          }
        }
      }
    },
    {
      "type": "RISK_SERVICE",
      "message": {
        "payload": {
          "createdTime": "2021-01-19T01:29:10.608459Z",
          "application": {
            "applicationReferenceId": "MLP000001770589"
          }
        }
      }
    },
    {
      "type": "RISK_SERVICE",
      "message": {
        "payload": {
          "createdTime": "2021-01-19T06:30:13.803182Z",
          "application": {
            "applicationReferenceId": "MLP000001527169"
          }
        }
      }
    },
    {
      "type": "RISK_SERVICE",
      "message": {
        "payload": {
          "createdTime": "2021-01-19T07:02:46.817894Z",
          "application": {
            "applicationReferenceId": "MLP000001911898"
          }
        }
      }
    },
    {
      "type": "RISK_SERVICE",
      "message": {
        "payload": {
          "createdTime": "2021-01-19T08:08:17.545313Z",
          "application": {
            "applicationReferenceId": "MLP000001996207"
          }
        }
      }
    },
    {
      "type": "RISK_SERVICE",
      "message": {
        "payload": {
          "createdTime": "2021-01-19T08:51:23.585870Z",
          "application": {
            "applicationReferenceId": "MLP000001921806"
          }
        }
      }
    },
    {
      "type": "RISK_SERVICE",
      "message": {
        "payload": {
          "createdTime": "2021-01-19T12:37:03.678614Z",
          "application": {
            "applicationReferenceId": "MLP000001997704"
          }
        }
      }
    },
    {
      "type": "RISK_SERVICE",
      "message": {
        "payload": {
          "createdTime": "2021-01-19T12:49:53.360479Z",
          "application": {
            "applicationReferenceId": "MLP000002000984"
          }
        }
      }
    },
    {
      "type": "RISK_SERVICE",
      "message": {
        "payload": {
          "createdTime": "2021-01-19T13:51:47.223696Z",
          "application": {
            "applicationReferenceId": "MLP000001928956"
          }
        }
      }
    },
    {
      "type": "RISK_SERVICE",
      "message": {
        "payload": {
          "createdTime": "2021-01-20T04:39:22.975718Z",
          "application": {
            "applicationReferenceId": "MLP000001929184"
          }
        }
      }
    },
    {
      "type": "RISK_SERVICE",
      "message": {
        "payload": {
          "createdTime": "2021-01-20T05:03:22.107186Z",
          "application": {
            "applicationReferenceId": "MLP000002006897"
          }
        }
      }
    },
    {
      "type": "RISK_SERVICE",
      "message": {
        "payload": {
          "createdTime": "2021-01-20T07:57:23.491004Z",
          "application": {
            "applicationReferenceId": "MLP000001920483"
          }
        }
      }
    },
    {
      "type": "RISK_SERVICE",
      "message": {
        "payload": {
          "createdTime": "2021-01-20T09:35:00.100672Z",
          "application": {
            "applicationReferenceId": "MLP000001916506"
          }
        }
      }
    },
    {
      "type": "RISK_SERVICE",
      "message": {
        "payload": {
          "createdTime": "2021-01-20T10:58:19.354850Z",
          "application": {
            "applicationReferenceId": "MLP000001912681"
          }
        }
      }
    },
    {
      "type": "RISK_SERVICE",
      "message": {
        "payload": {
          "createdTime": "2021-01-21T08:06:52.473212Z",
          "application": {
            "applicationReferenceId": "MLP000002025446"
          }
        }
      }
    },
    {
      "type": "RISK_SERVICE",
      "message": {
        "payload": {
          "createdTime": "2021-01-21T11:48:53.438078Z",
          "application": {
            "applicationReferenceId": "MLP000002029565"
          }
        }
      }
    },
    {
      "type": "RISK_SERVICE",
      "message": {
        "payload": {
          "createdTime": "2021-01-22T04:16:18.740354Z",
          "application": {
            "applicationReferenceId": "MLP000001927073"
          }
        }
      }
    },
    {
      "type": "RISK_SERVICE",
      "message": {
        "payload": {
          "createdTime": "2021-01-22T05:14:26.906310Z",
          "application": {
            "applicationReferenceId": "MLP000002037599"
          }
        }
      }
    },
    {
      "type": "RISK_SERVICE",
      "message": {
        "payload": {
          "createdTime": "2021-01-22T09:20:15.405499Z"
        }
      }
    },
    {
      "type": "RISK_SERVICE",
      "message": {
        "payload": {
          "createdTime": "2021-01-22T12:55:39.442250Z",
          "application": {
            "applicationReferenceId": "MLP000001285180"
          }
        }
      }
    },
    {
      "type": "RISK_SERVICE",
      "message": {
        "payload": {
          "createdTime": "2021-01-22T15:09:19.844697Z",
          "application": {
            "applicationReferenceId": "MLP000001819410"
          }
        }
      }
    },
    {
      "type": "RISK_SERVICE",
      "message": {
        "payload": {
          "createdTime": "2021-01-23T01:56:09.847230Z",
          "application": {
            "applicationReferenceId": "MLP000000974171"
          }
        }
      }
    },
    {
      "type": "RISK_SERVICE",
      "message": {
        "payload": {
          "createdTime": "2021-01-23T06:09:36.822252Z",
          "application": {
            "applicationReferenceId": "MLP000002053436"
          }
        }
      }
    },
    {
      "type": "RISK_SERVICE",
      "message": {
        "payload": {
          "createdTime": "2021-01-23T06:11:33.018713Z",
          "application": {
            "applicationReferenceId": "MLP000002053550"
          }
        }
      }
    },
    {
      "type": "RISK_SERVICE",
      "message": {
        "payload": {
          "createdTime": "2021-01-23T07:00:15.160496Z",
          "application": {
            "applicationReferenceId": "MLP000001109241"
          }
        }
      }
    },
    {
      "type": "RISK_SERVICE",
      "message": {
        "payload": {
          "createdTime": "2021-01-23T10:13:51.774264Z",
          "application": {
            "applicationReferenceId": "MLP000002057543"
          }
        }
      }
    },
    {
      "type": "RISK_SERVICE",
      "message": {
        "payload": {
          "createdTime": "2021-01-24T04:48:07.765652Z",
          "application": {
            "applicationReferenceId": "MLP000002053788"
          }
        }
      }
    },
    {
      "type": "RISK_SERVICE",
      "message": {
        "payload": {
          "createdTime": "2021-01-25T09:21:26.532357Z",
          "application": {
            "applicationReferenceId": "MLP000002025647"
          }
        }
      }
    },
    {
      "type": "RISK_SERVICE",
      "message": {
        "payload": {
          "createdTime": "2021-01-25T12:52:13.261207Z",
          "application": {
            "applicationReferenceId": "MLP000001140700"
          }
        }
      }
    },
    {
      "type": "RISK_SERVICE",
      "message": {
        "payload": {
          "createdTime": "2021-01-26T04:29:14.515942Z",
          "application": {
            "applicationReferenceId": "MLP000001911719"
          }
        }
      }
    },
    {
      "type": "RISK_SERVICE",
      "message": {
        "payload": {
          "createdTime": "2021-01-26T04:39:23.509012Z",
          "application": {
            "applicationReferenceId": "MLP000001912791"
          }
        }
      }
    },
    {
      "type": "RISK_SERVICE",
      "message": {
        "payload": {
          "createdTime": "2021-01-27T07:25:08.590941Z",
          "application": {
            "applicationReferenceId": "MLP000001345058"
          }
        }
      }
    },
    {
      "type": "RISK_SERVICE",
      "message": {
        "payload": {
          "createdTime": "2021-01-28T05:18:03.082862Z",
          "application": {
            "applicationReferenceId": "MLP000000991477"
          }
        }
      }
    },
    {
      "type": "RISK_SERVICE",
      "message": {
        "payload": {
          "createdTime": "2021-01-28T06:23:51.183878Z",
          "application": {
            "applicationReferenceId": "MLP000001574043"
          }
        }
      }
    },
    {
      "type": "RISK_SERVICE",
      "message": {
        "payload": {
          "createdTime": "2021-01-28T08:46:12.532708Z",
          "application": {
            "applicationReferenceId": "MLP000001720916"
          }
        }
      }
    },
    {
      "type": "RISK_SERVICE_GPAY",
      "message": {
        "payload": {
          "createdTime": "2021-01-28T12:33:57.363931Z",
          "application": {
            "applicationReferenceId": "MLP000002117689"
          }
        }
      }
    },
    {
      "type": "RISK_SERVICE",
      "message": {
        "payload": {
          "createdTime": "2021-01-28T14:18:45.671907Z",
          "application": {
            "applicationReferenceId": "MLP000001673857"
          }
        }
      }
    },
    {
      "type": "RISK_SERVICE",
      "message": {
        "payload": {
          "createdTime": "2021-01-29T04:09:19.205953Z",
          "application": {
            "applicationReferenceId": "MLP000002123549"
          }
        }
      }
    },
    {
      "type": "RISK_SERVICE_GPAY",
      "message": {
        "payload": {
          "createdTime": "2021-01-29T06:27:17.405183Z",
          "application": {
            "applicationReferenceId": "MLP000002126865"
          }
        }
      }
    },
    {
      "type": "RISK_SERVICE",
      "message": {
        "payload": {
          "createdTime": "2021-01-29T11:02:37.292749Z",
          "application": {
            "applicationReferenceId": "MLP000002136440"
          }
        }
      }
    },
    {
      "type": "RISK_SERVICE",
      "message": {
        "payload": {
          "createdTime": "2021-01-30T08:57:36.434075Z",
          "application": {
            "applicationReferenceId": "MLP000002157836"
          }
        }
      }
    },
    {
      "type": "RISK_SERVICE",
      "message": {
        "payload": {
          "createdTime": "2021-01-30T08:58:07.246357Z",
          "application": {
            "applicationReferenceId": "MLP000002158126"
          }
        }
      }
    },
    {
      "type": "RISK_SERVICE",
      "message": {
        "payload": {
          "createdTime": "2021-01-30T08:58:46.961565Z",
          "application": {
            "applicationReferenceId": "MLP000002157868"
          }
        }
      }
    },
    {
      "type": "RISK_SERVICE",
      "message": {
        "payload": {
          "createdTime": "2021-01-30T09:03:08.821003Z",
          "application": {
            "applicationReferenceId": "MLP000002158204"
          }
        }
      }
    },
    {
      "type": "RISK_SERVICE",
      "message": {
        "payload": {
          "createdTime": "2021-01-30T07:54:58.214746Z",
          "application": {
            "applicationReferenceId": "MLP000002155655"
          }
        }
      }
    },
    {
      "type": "RISK_SERVICE",
      "message": {
        "payload": {
          "createdTime": "2021-01-30T07:56:54.747158Z",
          "application": {
            "applicationReferenceId": "MLP000002155752"
          }
        }
      }
    },
    {
      "type": "RISK_SERVICE",
      "message": {
        "payload": {
          "createdTime": "2021-01-30T08:08:57.804715Z",
          "application": {
            "applicationReferenceId": "MLP000002153427"
          }
        }
      }
    },
    {
      "type": "RISK_SERVICE",
      "message": {
        "payload": {
          "createdTime": "2021-01-30T07:59:46.515499Z",
          "application": {
            "applicationReferenceId": "MLP000002155739"
          }
        }
      }
    },
    {
      "type": "RISK_SERVICE",
      "message": {
        "payload": {
          "createdTime": "2021-01-30T08:13:26.487787Z",
          "application": {
            "applicationReferenceId": "MLP000002156386"
          }
        }
      }
    },
    {
      "type": "RISK_SERVICE",
      "message": {
        "payload": {
          "createdTime": "2021-01-30T08:16:22.953531Z",
          "application": {
            "applicationReferenceId": "MLP000001912581"
          }
        }
      }
    },
    {
      "type": "RISK_SERVICE",
      "message": {
        "payload": {
          "createdTime": "2021-01-30T07:59:08.237836Z",
          "application": {
            "applicationReferenceId": "MLP000002155750"
          }
        }
      }
    },
    {
      "type": "RISK_SERVICE",
      "message": {
        "payload": {
          "createdTime": "2021-01-30T08:17:08.872770Z",
          "application": {
            "applicationReferenceId": "MLP000002143570"
          }
        }
      }
    },
    {
      "type": "RISK_SERVICE",
      "message": {
        "payload": {
          "createdTime": "2021-01-30T08:11:31.018759Z",
          "application": {
            "applicationReferenceId": "MLP000002156170"
          }
        }
      }
    },
    {
      "type": "RISK_SERVICE",
      "message": {
        "payload": {
          "createdTime": "2021-01-30T08:11:55.354716Z",
          "application": {
            "applicationReferenceId": "MLP000002134296"
          }
        }
      }
    },
    {
      "type": "RISK_SERVICE",
      "message": {
        "payload": {
          "createdTime": "2021-01-30T08:13:27.466500Z",
          "application": {
            "applicationReferenceId": "MLP000002156389"
          }
        }
      }
    },
    {
      "type": "RISK_SERVICE",
      "message": {
        "payload": {
          "createdTime": "2021-01-30T08:14:47.665728Z",
          "application": {
            "applicationReferenceId": "MLP000002155109"
          }
        }
      }
    },
    {
      "type": "RISK_SERVICE",
      "message": {
        "payload": {
          "createdTime": "2021-01-30T08:27:05.715454Z",
          "application": {
            "applicationReferenceId": "MLP000002156636"
          }
        }
      }
    },
    {
      "type": "RISK_SERVICE",
      "message": {
        "payload": {
          "createdTime": "2021-01-30T08:18:48.104561Z",
          "application": {
            "applicationReferenceId": "MLP000002156686"
          }
        }
      }
    },
    {
      "type": "RISK_SERVICE",
      "message": {
        "payload": {
          "createdTime": "2021-01-30T08:27:51.617356Z",
          "application": {
            "applicationReferenceId": "MLP000002156923"
          }
        }
      }
    },
    {
      "type": "RISK_SERVICE",
      "message": {
        "payload": {
          "createdTime": "2021-01-30T08:36:22.178863Z",
          "application": {
            "applicationReferenceId": "MLP000002157235"
          }
        }
      }
    },
    {
      "type": "RISK_SERVICE",
      "message": {
        "payload": {
          "createdTime": "2021-01-30T08:49:22.560737Z",
          "application": {
            "applicationReferenceId": "MLP000002157838"
          }
        }
      }
    },
    {
      "type": "RISK_SERVICE",
      "message": {
        "payload": {
          "createdTime": "2021-01-30T08:28:00.388811Z",
          "application": {
            "applicationReferenceId": "MLP000002135857"
          }
        }
      }
    },
    {
      "type": "RISK_SERVICE",
      "message": {
        "payload": {
          "createdTime": "2021-01-30T08:53:01.037941Z",
          "application": {
            "applicationReferenceId": "MLP000002157892"
          }
        }
      }
    },
    {
      "type": "RISK_SERVICE",
      "message": {
        "payload": {
          "createdTime": "2021-01-30T08:54:52.061976Z",
          "application": {
            "applicationReferenceId": "MLP000002158009"
          }
        }
      }
    },
    {
      "type": "RISK_SERVICE",
      "message": {
        "payload": {
          "createdTime": "2021-01-30T09:18:23.762631Z",
          "application": {
            "applicationReferenceId": "MLP000002158847"
          }
        }
      }
    },
    {
      "type": "RISK_SERVICE",
      "message": {
        "payload": {
          "createdTime": "2021-01-30T09:20:09.091747Z",
          "application": {
            "applicationReferenceId": "MLP000002158421"
          }
        }
      }
    },
    {
      "type": "RISK_SERVICE",
      "message": {
        "payload": {
          "createdTime": "2021-01-30T09:23:00.475907Z",
          "application": {
            "applicationReferenceId": "MLP000001964701"
          }
        }
      }
    },
    {
      "type": "RISK_SERVICE",
      "message": {
        "payload": {
          "createdTime": "2021-01-30T09:24:38.559663Z",
          "application": {
            "applicationReferenceId": "MLP000002158913"
          }
        }
      }
    },
    {
      "type": "RISK_SERVICE",
      "message": {
        "payload": {
          "createdTime": "2021-01-30T09:28:32.678611Z",
          "application": {
            "applicationReferenceId": "MLP000002159117"
          }
        }
      }
    },
    {
      "type": "RISK_SERVICE",
      "message": {
        "payload": {
          "createdTime": "2021-01-30T09:29:49.435846Z",
          "application": {
            "applicationReferenceId": "MLP000002159194"
          }
        }
      }
    },
    {
      "type": "RISK_SERVICE",
      "message": {
        "payload": {
          "createdTime": "2021-01-30T09:34:44.937099Z",
          "application": {
            "applicationReferenceId": "MLP000002159118"
          }
        }
      }
    },
    {
      "type": "RISK_SERVICE",
      "message": {
        "payload": {
          "createdTime": "2021-01-30T09:36:28.154894Z",
          "application": {
            "applicationReferenceId": "MLP000002159449"
          }
        }
      }
    },
    {
      "type": "RISK_SERVICE",
      "message": {
        "payload": {
          "createdTime": "2021-01-30T09:36:46.557093Z",
          "application": {
            "applicationReferenceId": "MLP000002159319"
          }
        }
      }
    },
    {
      "type": "RISK_SERVICE",
      "message": {
        "payload": {
          "createdTime": "2021-01-30T09:37:55.166710Z",
          "application": {
            "applicationReferenceId": "MLP000002085308"
          }
        }
      }
    },
    {
      "type": "RISK_SERVICE",
      "message": {
        "payload": {
          "createdTime": "2021-01-31T16:47:27.958788Z",
          "application": {
            "applicationReferenceId": "MLP000001381376"
          }
        }
      }
    },
    {
      "type": "RISK_SERVICE",
      "message": {
        "payload": {
          "createdTime": "2021-02-01T04:40:45.298004Z",
          "application": {
            "applicationReferenceId": "MLP000002185551"
          }
        }
      }
    },
    {
      "type": "RISK_SERVICE",
      "message": {
        "payload": {
          "createdTime": "2021-02-01T09:11:44.444372Z",
          "application": {
            "applicationReferenceId": "MLP000002193800"
          }
        }
      }
    },
    {
      "type": "RISK_SERVICE",
      "message": {
        "payload": {
          "createdTime": "2021-02-01T09:58:01.997214Z",
          "application": {
            "applicationReferenceId": "MLP000002196919"
          }
        }
      }
    },
    {
      "type": "RISK_SERVICE_GPAY",
      "message": {
        "payload": {
          "createdTime": "2021-02-01T19:33:26.300692Z",
          "application": {
            "applicationReferenceId": "MLP000002209105"
          }
        }
      }
    },
    {
      "type": "RISK_SERVICE",
      "message": {
        "payload": {
          "createdTime": "2021-02-02T04:22:38.386401Z",
          "application": {
            "applicationReferenceId": "MLP000002211513"
          }
        }
      }
    },
    {
      "type": "RISK_SERVICE",
      "message": {
        "payload": {
          "createdTime": "2021-02-03T09:15:26.869948Z",
          "application": {
            "applicationReferenceId": "MLP000001910987"
          }
        }
      }
    },
    {
      "type": "RISK_SERVICE",
      "message": {
        "payload": {
          "createdTime": "2021-02-03T09:51:16.966838Z",
          "application": {
            "applicationReferenceId": "MLP000002076663"
          }
        }
      }
    },
    {
      "type": "RISK_SERVICE",
      "message": {
        "payload": {
          "createdTime": "2021-02-03T11:53:12.912814Z",
          "application": {
            "applicationReferenceId": "MLP000002253041"
          }
        }
      }
    },
    {
      "type": "RISK_SERVICE",
      "message": {
        "payload": {
          "createdTime": "2021-02-03T11:53:12.912814Z",
          "application": {
            "applicationReferenceId": "MLP000002253041"
          }
        }
      }
    },
    {
      "type": "RISK_SERVICE",
      "message": {
        "payload": {
          "createdTime": "2021-02-03T11:56:28.098413Z",
          "application": {
            "applicationReferenceId": "MLP000000858237"
          }
        }
      }
    },
    {
      "type": "RISK_SERVICE_GPAY",
      "message": {
        "payload": {
          "createdTime": "2021-02-04T19:29:55.051065Z",
          "application": {
            "applicationReferenceId": "MLP000002284586"
          }
        }
      }
    },
    {
      "type": "RISK_SERVICE",
      "message": {
        "payload": {
          "createdTime": "2021-02-04T07:21:24.677915Z",
          "application": {
            "applicationReferenceId": "MLP000002269175"
          }
        }
      }
    },
    {
      "type": "RISK_SERVICE",
      "message": {
        "payload": {
          "createdTime": "2021-02-04T12:11:52.829177Z",
          "application": {
            "applicationReferenceId": "MLP000001475973"
          }
        }
      }
    },
    {
      "type": "RISK_SERVICE_GPAY",
      "message": {
        "payload": {
          "createdTime": "2021-02-06T05:19:15.613685Z",
          "application": {
            "applicationReferenceId": "MLP000002313600"
          }
        }
      }
    },
    {
      "type": "RISK_SERVICE",
      "message": {
        "payload": {
          "createdTime": "2021-02-06T12:36:50.696925Z",
          "application": {
            "applicationReferenceId": "MLP000002327713"
          }
        }
      }
    },
    {
      "type": "RISK_SERVICE",
      "message": {
        "payload": {
          "createdTime": "2021-02-08T12:03:38.914261Z",
          "application": {
            "applicationReferenceId": "MLP000002357915"
          }
        }
      }
    },
    {
      "type": "RISK_SERVICE",
      "message": {
        "payload": {
          "createdTime": "2021-02-09T07:40:45.599023Z",
          "application": {
            "applicationReferenceId": "MLP000002368887"
          }
        }
      }
    },
    {
      "type": "RISK_SERVICE",
      "message": {
        "payload": {
          "createdTime": "2021-02-09T08:15:04.270774Z",
          "application": {
            "applicationReferenceId": "MLP000001502846"
          }
        }
      }
    },
    {
      "type": "RISK_SERVICE",
      "message": {
        "payload": {
          "createdTime": "2021-02-09T16:07:06.545887Z",
          "application": {
            "applicationReferenceId": "MLP000002377930"
          }
        }
      }
    },
    {
      "type": "RISK_SERVICE",
      "message": {
        "payload": {
          "createdTime": "2021-02-10T06:41:09.783778Z",
          "application": {
            "applicationReferenceId": "MLP000002383596"
          }
        }
      }
    },
    {
      "type": "RISK_SERVICE",
      "message": {
        "payload": {
          "createdTime": "2021-02-10T08:30:13.749112Z",
          "application": {
            "applicationReferenceId": "MLP000001410606"
          }
        }
      }
    },
    {
      "type": "RISK_SERVICE",
      "message": {
        "payload": {
          "createdTime": "2021-02-10T09:34:17.273356Z",
          "application": {
            "applicationReferenceId": "MLP000002386740"
          }
        }
      }
    },
    {
      "type": "RISK_SERVICE",
      "message": {
        "payload": {
          "createdTime": "2021-02-10T09:49:41.992959Z",
          "application": {
            "applicationReferenceId": "MLP000002387009"
          }
        }
      }
    },
    {
      "type": "RISK_SERVICE",
      "message": {
        "payload": {
          "createdTime": "2021-02-10T10:03:14.012973Z",
          "application": {
            "applicationReferenceId": "MLP000002387301"
          }
        }
      }
    },
    {
      "type": "RISK_SERVICE",
      "message": {
        "payload": {
          "createdTime": "2021-02-12T06:39:48.999957Z",
          "application": {
            "applicationReferenceId": "MLP000002411910"
          }
        }
      }
    },
    {
      "type": "RISK_SERVICE",
      "message": {
        "payload": {
          "createdTime": "2021-02-12T12:54:22.111870Z",
          "application": {
            "applicationReferenceId": "MLP000000778895"
          }
        }
      }
    },
    {
      "type": "RISK_SERVICE_GPAY",
      "message": {
        "payload": {
          "createdTime": "2021-02-13T13:08:04.696361Z",
          "application": {
            "applicationReferenceId": "MLP000002428485"
          }
        }
      }
    },
    {
      "type": "RISK_SERVICE",
      "message": {
        "payload": {
          "createdTime": "2021-02-13T15:36:49.700052Z",
          "application": {
            "applicationReferenceId": "MLP000000878892"
          }
        }
      }
    },
    {
      "type": "RISK_SERVICE",
      "message": {
        "payload": {
          "createdTime": "2021-02-15T10:30:41.291570Z",
          "application": {
            "applicationReferenceId": "MLP000002443919"
          }
        }
      }
    },
    {
      "type": "RISK_SERVICE",
      "message": {
        "payload": {
          "createdTime": "2021-02-16T05:07:48.230537Z",
          "application": {
            "applicationReferenceId": "MLP000002376507"
          }
        }
      }
    },
    {
      "type": "RISK_SERVICE",
      "message": {
        "payload": {
          "createdTime": "2021-02-16T12:22:13.016276Z",
          "application": {
            "applicationReferenceId": "MLP000002458996"
          }
        }
      }
    },
    {
      "type": "RISK_SERVICE",
      "message": {
        "payload": {
          "createdTime": "2021-02-16T12:41:26.158755Z",
          "application": {
            "applicationReferenceId": "MLP000000787839"
          }
        }
      }
    },
    {
      "type": "RISK_SERVICE",
      "message": {
        "payload": {
          "createdTime": "2021-02-17T06:26:21.387262Z",
          "application": {
            "applicationReferenceId": "MLP000001919424"
          }
        }
      }
    },
    {
      "type": "RISK_SERVICE",
      "message": {
        "payload": {
          "createdTime": "2021-02-17T07:16:34.623713Z",
          "application": {
            "applicationReferenceId": "MLP000002466873"
          }
        }
      }
    },
    {
      "type": "RISK_SERVICE",
      "message": {
        "payload": {
          "createdTime": "2021-02-17T08:45:39.248686Z",
          "application": {
            "applicationReferenceId": "MLP000002468520"
          }
        }
      }
    },
    {
      "type": "RISK_SERVICE",
      "message": {
        "payload": {
          "createdTime": "2021-02-18T08:18:14.062017Z",
          "application": {
            "applicationReferenceId": "MLP000002480819"
          }
        }
      }
    },
    {
      "type": "RISK_SERVICE",
      "message": {
        "payload": {
          "createdTime": "2021-02-19T12:09:16.830129Z",
          "application": {
            "applicationReferenceId": "MLP000002496156"
          }
        }
      }
    },
    {
      "type": "RISK_SERVICE_GPAY",
      "message": {
        "payload": {
          "createdTime": "2021-02-19T14:43:47.698830Z",
          "application": {
            "applicationReferenceId": "MLP000002497675"
          }
        }
      }
    },
    {
      "type": "RISK_SERVICE",
      "message": {
        "payload": {
          "createdTime": "2021-02-22T06:03:10.550115Z",
          "application": {
            "applicationReferenceId": "MLP000002517195"
          }
        }
      }
    },
    {
      "type": "RISK_SERVICE",
      "message": {
        "payload": {
          "createdTime": "2021-02-22T09:07:53.842116Z",
          "application": {
            "applicationReferenceId": "MLP000002520421"
          }
        }
      }
    },
    {
      "type": "RISK_SERVICE",
      "message": {
        "payload": {
          "createdTime": "2021-02-22T12:52:24.010131Z",
          "application": {
            "applicationReferenceId": "MLP000002511898"
          }
        }
      }
    },
    {
      "type": "RISK_SERVICE",
      "message": {
        "payload": {
          "createdTime": "2021-02-22T12:51:12.345186Z",
          "application": {
            "applicationReferenceId": "MLP000002523324"
          }
        }
      }
    },
    {
      "type": "RISK_SERVICE",
      "message": {
        "payload": {
          "createdTime": "2021-02-23T10:31:05.675274Z",
          "application": {
            "applicationReferenceId": "MLP000002532930"
          }
        }
      }
    },
    {
      "type": "RISK_SERVICE_GPAY",
      "message": {
        "payload": {
          "createdTime": "2021-02-23T14:29:55.154294Z",
          "application": {
            "applicationReferenceId": "MLP000002535673"
          }
        }
      }
    },
    {
      "type": "RISK_SERVICE",
      "message": {
        "payload": {
          "createdTime": "2021-02-24T09:35:15.172663Z",
          "application": {
            "applicationReferenceId": "MLP000002542653"
          }
        }
      }
    },
    {
      "type": "RISK_SERVICE",
      "message": {
        "payload": {
          "createdTime": "2021-02-24T11:43:44.048451Z",
          "application": {
            "applicationReferenceId": "MLP000001777966"
          }
        }
      }
    },
    {
      "type": "RISK_SERVICE",
      "message": {
        "payload": {
          "createdTime": "2021-02-24T13:01:11.804805Z",
          "application": {
            "applicationReferenceId": "MLP000002545504"
          }
        }
      }
    },
    {
      "type": "RISK_SERVICE",
      "message": {
        "payload": {
          "createdTime": "2021-02-25T06:36:59.016488Z",
          "application": {
            "applicationReferenceId": "MLP000002551017"
          }
        }
      }
    },
    {
      "type": "RISK_SERVICE",
      "message": {
        "payload": {
          "createdTime": "2021-02-25T09:18:11.482298Z",
          "application": {
            "applicationReferenceId": "MLP000001918320"
          }
        }
      }
    },
    {
      "type": "RISK_SERVICE",
      "message": {
        "payload": {
          "createdTime": "2021-02-25T13:30:45.301345Z",
          "application": {
            "applicationReferenceId": "MLP000002557056"
          }
        }
      }
    },
    {
      "type": "RISK_SERVICE_GPAY",
      "message": {
        "payload": {
          "createdTime": "2021-02-25T18:25:30.981402Z",
          "application": {
            "applicationReferenceId": "MLP000002558689"
          }
        }
      }
    },
    {
      "type": "RISK_SERVICE",
      "message": {
        "payload": {
          "createdTime": "2021-02-26T04:13:22.138126Z",
          "application": {
            "applicationReferenceId": "MLP000002559640"
          }
        }
      }
    },
    {
      "type": "RISK_SERVICE",
      "message": {
        "payload": {
          "createdTime": "2021-02-26T04:54:07.589260Z",
          "application": {
            "applicationReferenceId": "MLP000002559909"
          }
        }
      }
    },
    {
      "type": "RISK_SERVICE",
      "message": {
        "payload": {
          "createdTime": "2021-02-26T05:42:11.749435Z",
          "application": {
            "applicationReferenceId": "MLP000002560440"
          }
        }
      }
    },
    {
      "type": "RISK_SERVICE",
      "message": {
        "payload": {
          "createdTime": "2021-02-26T07:07:04.824488Z",
          "application": {
            "applicationReferenceId": "MLP000002561642"
          }
        }
      }
    },
    {
      "type": "RISK_SERVICE",
      "message": {
        "payload": {
          "createdTime": "2021-02-26T08:23:39.191168Z",
          "application": {
            "applicationReferenceId": "MLP000002562610"
          }
        }
      }
    },
    {
      "type": "RISK_SERVICE",
      "message": {
        "payload": {
          "createdTime": "2021-02-26T08:27:07.324102Z",
          "application": {
            "applicationReferenceId": "MLP000002562622"
          }
        }
      }
    },
    {
      "type": "RISK_SERVICE",
      "message": {
        "payload": {
          "createdTime": "2021-02-26T09:18:08.300329Z",
          "application": {
            "applicationReferenceId": "MLP000002525612"
          }
        }
      }
    },
    {
      "type": "RISK_SERVICE",
      "message": {
        "payload": {
          "createdTime": "2021-02-26T09:33:45.563414Z",
          "application": {
            "applicationReferenceId": "MLP000002563684"
          }
        }
      }
    },
    {
      "type": "RISK_SERVICE",
      "message": {
        "payload": {
          "createdTime": "2021-02-26T10:01:30.198895Z",
          "application": {
            "applicationReferenceId": "MLP000002563042"
          }
        }
      }
    },
    {
      "type": "RISK_SERVICE",
      "message": {
        "payload": {
          "createdTime": "2021-02-26T10:30:20.952179Z",
          "application": {
            "applicationReferenceId": "MLP000002564622"
          }
        }
      }
    },
    {
      "type": "RISK_SERVICE",
      "message": {
        "payload": {
          "createdTime": "2021-02-26T10:39:18.178549Z",
          "application": {
            "applicationReferenceId": "MLP000002564788"
          }
        }
      }
    },
    {
      "type": "RISK_SERVICE",
      "message": {
        "payload": {
          "createdTime": "2021-02-26T11:41:04.683394Z",
          "application": {
            "applicationReferenceId": "MLP000002258196"
          }
        }
      }
    },
    {
      "type": "RISK_SERVICE",
      "message": {
        "payload": {
          "createdTime": "2021-02-26T11:44:29.061321Z",
          "application": {
            "applicationReferenceId": "MLP000001987058"
          }
        }
      }
    },
    {
      "type": "RISK_SERVICE",
      "message": {
        "payload": {
          "createdTime": "2021-02-26T11:56:00.202040Z",
          "application": {
            "applicationReferenceId": "MLP000001389621"
          }
        }
      }
    },
    {
      "type": "RISK_SERVICE",
      "message": {
        "payload": {
          "createdTime": "2021-02-26T12:00:54.640957Z",
          "application": {
            "applicationReferenceId": "MLP000002565954"
          }
        }
      }
    },
    {
      "type": "RISK_SERVICE",
      "message": {
        "payload": {
          "createdTime": "2021-02-26T12:34:15.921656Z",
          "application": {
            "applicationReferenceId": "MLP000002566309"
          }
        }
      }
    },
    {
      "type": "RISK_SERVICE",
      "message": {
        "payload": {
          "createdTime": "2021-02-26T18:29:07.381348Z",
          "application": {
            "applicationReferenceId": "MLP000002515130"
          }
        }
      }
    },
    {
      "type": "RISK_SERVICE",
      "message": {
        "payload": {
          "createdTime": "2021-02-27T07:31:46.139105Z",
          "application": {
            "applicationReferenceId": "MLP000002571807"
          }
        }
      }
    },
    {
      "type": "RISK_SERVICE",
      "message": {
        "payload": {
          "createdTime": "2021-02-27T10:38:03.619651Z",
          "application": {
            "applicationReferenceId": "MLP000002573664"
          }
        }
      }
    },
    {
      "type": "RISK_SERVICE",
      "message": {
        "payload": {
          "createdTime": "2021-02-28T18:00:26.061943Z",
          "application": {
            "applicationReferenceId": "MLP000002581298"
          }
        }
      }
    },
    {
      "type": "RISK_SERVICE",
      "message": {
        "payload": {
          "createdTime": "2021-02-28T18:08:52.686052Z",
          "application": {
            "applicationReferenceId": "MLP000001089695"
          }
        }
      }
    },
    {
      "type": "RISK_SERVICE_GPAY",
      "message": {
        "payload": {
          "createdTime": "2021-03-01T15:52:45.725780Z",
          "application": {
            "applicationReferenceId": "MLP000002590804"
          }
        }
      }
    },
    {
      "type": "RISK_SERVICE",
      "message": {
        "payload": {
          "createdTime": "2021-03-01T17:58:23.037570Z",
          "application": {
            "applicationReferenceId": "MLP000000992787"
          }
        }
      }
    },
    {
      "type": "RISK_SERVICE",
      "message": {
        "payload": {
          "createdTime": "2021-03-02T05:05:58.753093Z",
          "application": {
            "applicationReferenceId": "MLP000002588785"
          }
        }
      }
    },
    {
      "type": "RISK_SERVICE_GPAY",
      "message": {
        "payload": {
          "createdTime": "2021-03-03T06:51:21.299716Z",
          "application": {
            "applicationReferenceId": "MLP000002605357"
          }
        }
      }
    },
    {
      "type": "RISK_SERVICE_GPAY",
      "message": {
        "payload": {
          "createdTime": "2021-03-04T08:08:18.213233Z",
          "application": {
            "applicationReferenceId": "MLP000002619174"
          }
        }
      }
    },
    {
      "type": "RISK_SERVICE",
      "message": {
        "payload": {
          "createdTime": "2021-03-05T12:12:03.383708Z",
          "application": {
            "applicationReferenceId": "MLP000002639013"
          }
        }
      }
    },
    {
      "type": "RISK_SERVICE",
      "message": {
        "payload": {
          "createdTime": "2021-03-05T12:33:25.436499Z",
          "application": {
            "applicationReferenceId": "MLP000002639198"
          }
        }
      }
    },
    {
      "type": "RISK_SERVICE",
      "message": {
        "payload": {
          "createdTime": "2021-03-05T13:40:41.177626Z",
          "application": {
            "applicationReferenceId": "MLP000000908236"
          }
        }
      }
    },
    {
      "type": "RISK_SERVICE",
      "message": {
        "payload": {
          "createdTime": "2021-03-06T13:06:06.213967Z",
          "application": {
            "applicationReferenceId": "MLP000002654251"
          }
        }
      }
    },
    {
      "type": "RISK_SERVICE",
      "message": {
        "payload": {
          "createdTime": "2021-03-06T13:06:42.493301Z",
          "application": {
            "applicationReferenceId": "MLP000002654360"
          }
        }
      }
    },
    {
      "type": "RISK_SERVICE",
      "message": {
        "payload": {
          "createdTime": "2021-03-06T13:17:05.236290Z",
          "application": {
            "applicationReferenceId": "MLP000002654559"
          }
        }
      }
    },
    {
      "type": "RISK_SERVICE",
      "message": {
        "payload": {
          "createdTime": "2021-03-06T13:19:22.248044Z",
          "application": {
            "applicationReferenceId": "MLP000002654287"
          }
        }
      }
    },
    {
      "type": "RISK_SERVICE",
      "message": {
        "payload": {
          "createdTime": "2021-03-06T13:20:42.182337Z",
          "application": {
            "applicationReferenceId": "MLP000002528532"
          }
        }
      }
    },
    {
      "type": "RISK_SERVICE",
      "message": {
        "payload": {
          "createdTime": "2021-03-06T13:56:21.437472Z",
          "application": {
            "applicationReferenceId": "MLP000002654884"
          }
        }
      }
    },
    {
      "type": "RISK_SERVICE",
      "message": {
        "payload": {
          "createdTime": "2021-03-06T14:14:50.777738Z",
          "application": {
            "applicationReferenceId": "MLP000002654829"
          }
        }
      }
    },
    {
      "type": "RISK_SERVICE",
      "message": {
        "payload": {
          "createdTime": "2021-03-06T22:05:43.048253Z",
          "application": {
            "applicationReferenceId": "MLP000002656763"
          }
        }
      }
    },
    {
      "type": "RISK_SERVICE",
      "message": {
        "payload": {
          "createdTime": "2021-03-06T21:53:59.950699Z",
          "application": {
            "applicationReferenceId": "MLP000002581536"
          }
        }
      }
    },
    {
      "type": "RISK_SERVICE",
      "message": {
        "payload": {
          "createdTime": "2021-03-07T06:19:03.357464Z",
          "application": {
            "applicationReferenceId": "MLP000002659113"
          }
        }
      }
    },
    {
      "type": "RISK_SERVICE",
      "message": {
        "payload": {
          "createdTime": "2021-03-07T06:19:56.586147Z",
          "application": {
            "applicationReferenceId": "MLP000002659026"
          }
        }
      }
    },
    {
      "type": "RISK_SERVICE_GPAY",
      "message": {
        "payload": {
          "createdTime": "2021-03-08T07:52:33.519714Z",
          "application": {
            "applicationReferenceId": "MLP000002669480"
          }
        }
      }
    },
    {
      "type": "RISK_SERVICE_GPAY",
      "message": {
        "payload": {
          "createdTime": "2021-03-09T09:31:34.489254Z",
          "application": {
            "applicationReferenceId": "MLP000002684846"
          }
        }
      }
    },
    {
      "type": "RISK_SERVICE_GPAY",
      "message": {
        "payload": {
          "createdTime": "2021-03-10T12:47:30.217020Z",
          "application": {
            "applicationReferenceId": "MLP000002700883"
          }
        }
      }
    },
    {
      "type": "RISK_SERVICE",
      "message": {
        "payload": {
          "createdTime": "2021-03-11T09:01:54.404418Z",
          "application": {
            "applicationReferenceId": "MLP000002710034"
          }
        }
      }
    },
    {
      "type": "RISK_SERVICE",
      "message": {
        "payload": {
          "createdTime": "2021-03-11T10:42:06.941528Z",
          "application": {
            "applicationReferenceId": "MLP000001098866"
          }
        }
      }
    },
    {
      "type": "RISK_SERVICE",
      "message": {
        "payload": {
          "createdTime": "2021-03-12T06:13:01.727502Z",
          "application": {
            "applicationReferenceId": "MLP000002720433"
          }
        }
      }
    },
    {
      "type": "RISK_SERVICE",
      "message": {
        "payload": {
          "createdTime": "2021-03-12T07:13:37.837944Z",
          "application": {
            "applicationReferenceId": "MLP000001032520"
          }
        }
      }
    },
    {
      "type": "RISK_SERVICE",
      "message": {
        "payload": {
          "createdTime": "2021-03-12T07:17:36.764148Z",
          "application": {
            "applicationReferenceId": "MLP000002721735"
          }
        }
      }
    },
    {
      "type": "RISK_SERVICE",
      "message": {
        "payload": {
          "createdTime": "2021-03-12T12:50:24.125519Z",
          "application": {
            "applicationReferenceId": "MLP000002727028"
          }
        }
      }
    },
    {
      "type": "RISK_SERVICE",
      "message": {
        "payload": {
          "createdTime": "2021-03-13T04:52:24.162177Z",
          "application": {
            "applicationReferenceId": "MLP000002704876"
          }
        }
      }
    },
    {
      "type": "RISK_SERVICE",
      "message": {
        "payload": {
          "createdTime": "2021-03-13T11:50:32.375700Z",
          "application": {
            "applicationReferenceId": "MLP000002736798"
          }
        }
      }
    },
    {
      "type": "RISK_SERVICE",
      "message": {
        "payload": {
          "createdTime": "2021-03-14T06:06:29.333662Z",
          "application": {
            "applicationReferenceId": "MLP000002740768"
          }
        }
      }
    },
    {
      "type": "RISK_SERVICE_GPAY",
      "message": {
        "payload": {
          "createdTime": "2021-03-14T06:30:38.841450Z",
          "application": {
            "applicationReferenceId": "MLP000002740954"
          }
        }
      }
    },
    {
      "type": "RISK_SERVICE",
      "message": {
        "payload": {
          "createdTime": "2021-03-14T10:23:35.677639Z",
          "application": {
            "applicationReferenceId": "MLP000002743112"
          }
        }
      }
    }
  ]
}